\relax 
\bbl@cs{beforestart}
\catcode `"\active 
\pgfsyspdfmark {pgfid1}{3552215}{51340433}
\pgfsyspdfmark {pgfid2}{20129219}{51340433}
\pgfsyspdfmark {pgfid3}{36706222}{51340433}
\babel@aux{ngerman}{}
\babel@aux{ngerman}{}
\pgfsyspdfmark {pgfid4}{3552215}{51340433}
\pgfsyspdfmark {pgfid5}{20129219}{51340433}
\pgfsyspdfmark {pgfid6}{36706222}{51340433}
\pgfsyspdfmark {pgfid7}{8868175}{2273397}
\pgfsyspdfmark {pgfid8}{3552215}{51340433}
\pgfsyspdfmark {pgfid9}{20129219}{51340433}
\pgfsyspdfmark {pgfid10}{36706222}{51340433}
\@writefile{toc}{\contentsline {part}{\numberline {1}Überblick über die Welt}{1}\protected@file@percent }
\pgfsyspdfmark {pgfid11}{36706222}{2273397}
\pgfsyspdfmark {pgfid12}{3552215}{51340433}
\pgfsyspdfmark {pgfid13}{20129219}{51340433}
\pgfsyspdfmark {pgfid14}{36706222}{51340433}
\@writefile{toc}{\contentsline {chapter}{\numberline {1}Gandref}{2}\protected@file@percent }
\@writefile{lof}{\addvspace {10\p@ }}
\@writefile{lot}{\addvspace {10\p@ }}
\@writefile{toc}{\contentsline {paragraph}{Hinweis}{2}\protected@file@percent }
\@writefile{toc}{\contentsline {section}{Die Kontinente}{2}\protected@file@percent }
\@writefile{toc}{\contentsline {subsection}{Lavenia}{2}\protected@file@percent }
\@writefile{toc}{\contentsline {subsubsection}{Karte}{2}\protected@file@percent }
\@writefile{toc}{\contentsline {subsubsection}{Politisches Gefüge}{2}\protected@file@percent }
\@writefile{toc}{\contentsline {subsubsection}{Bevölkerung}{2}\protected@file@percent }
\@writefile{toc}{\contentsline {subsection}{Kaleph}{2}\protected@file@percent }
\pgfsyspdfmark {pgfid15}{8589264}{2273397}
\pgfsyspdfmark {pgfid16}{3552215}{51340433}
\pgfsyspdfmark {pgfid17}{20129219}{51340433}
\pgfsyspdfmark {pgfid18}{36706222}{51340433}
\@writefile{toc}{\contentsline {chapter}{\numberline {2}Lavenias Ostküste}{3}\protected@file@percent }
\@writefile{lof}{\addvspace {10\p@ }}
\@writefile{lot}{\addvspace {10\p@ }}
\@writefile{toc}{\contentsline {subsection}{Karte}{3}\protected@file@percent }
\@writefile{toc}{\contentsline {subsection}{Städte und Orte}{3}\protected@file@percent }
\@writefile{toc}{\contentsline {subsubsection}{Flusswasser}{3}\protected@file@percent }
\@writefile{toc}{\contentsline {subsubsection}{Leilon}{3}\protected@file@percent }
\@writefile{toc}{\contentsline {subsubsection}{Phandalin}{3}\protected@file@percent }
\pgfsyspdfmark {pgfid19}{36706222}{2273397}
\pgfsyspdfmark {pgfid20}{3552215}{51340433}
\pgfsyspdfmark {pgfid21}{20129219}{51340433}
\pgfsyspdfmark {pgfid22}{36706222}{51340433}
\@writefile{toc}{\contentsline {part}{\numberline {2}Regelübersichten}{4}\protected@file@percent }
\pgfsyspdfmark {pgfid23}{3552215}{2273397}
\pgfsyspdfmark {pgfid26}{3552215}{51340433}
\pgfsyspdfmark {pgfid27}{20129219}{51340433}
\pgfsyspdfmark {pgfid28}{36706222}{51340433}
\@writefile{toc}{\contentsline {section}{Kampf}{5}\protected@file@percent }
\@writefile{toc}{\contentsline {subsection}{Bewegung}{5}\protected@file@percent }
\@writefile{toc}{\contentsline {subsection}{Aktion}{5}\protected@file@percent }
\@writefile{toc}{\contentsline {subsection}{Bonusaktion}{5}\protected@file@percent }
\@writefile{toc}{\contentsline {subsubsection}{Mit einem Objekt interagieren}{5}\protected@file@percent }
\@writefile{toc}{\contentsline {subsubsection}{Andere einfache Aktivitäten}{5}\protected@file@percent }
\@writefile{toc}{\contentsline {subsubsection}{evtl. eine Bonusaktion}{5}\protected@file@percent }
\@writefile{toc}{\contentsline {subsubsection}{evtl. eine Reaktion}{5}\protected@file@percent }
\@writefile{toc}{\contentsline {subsection}{Kampfaktionen}{5}\protected@file@percent }
\@writefile{toc}{\contentsline {subsubsection}{Angriff}{5}\protected@file@percent }
\@writefile{toc}{\contentsline {subsubsection}{Ausweichen}{5}\protected@file@percent }
\@writefile{toc}{\contentsline {subsubsection}{Gegenstand benutzen}{5}\protected@file@percent }
\pgfsyspdfmark {pgfid29}{36706222}{2273397}
\pgfsyspdfmark {pgfid30}{3552215}{51340433}
\pgfsyspdfmark {pgfid31}{20129219}{51340433}
\pgfsyspdfmark {pgfid32}{36706222}{51340433}
\@writefile{toc}{\contentsline {subsubsection}{Helfen}{6}\protected@file@percent }
\@writefile{toc}{\contentsline {subsubsection}{Rückzug}{6}\protected@file@percent }
\@writefile{toc}{\contentsline {subsubsection}{Spurt}{6}\protected@file@percent }
\@writefile{toc}{\contentsline {subsubsection}{Stabilisieren}{6}\protected@file@percent }
\@writefile{toc}{\contentsline {subsubsection}{Suchen}{6}\protected@file@percent }
\@writefile{toc}{\contentsline {subsubsection}{Verstecken}{6}\protected@file@percent }
\@writefile{toc}{\contentsline {subsubsection}{Vorbereiten}{6}\protected@file@percent }
\@writefile{toc}{\contentsline {subsubsection}{Zauber wirken}{6}\protected@file@percent }
\@writefile{toc}{\contentsline {section}{Erkundung und Fertigkeiten}{6}\protected@file@percent }
\@writefile{toc}{\contentsline {subsection}{Stärke}{6}\protected@file@percent }
\@writefile{toc}{\contentsline {subsubsection}{Stärkewürfe}{6}\protected@file@percent }
\@writefile{toc}{\contentsline {paragraph}{Athletik}{6}\protected@file@percent }
\@writefile{toc}{\contentsline {paragraph}{Andere Stärkewürfe}{6}\protected@file@percent }
\@writefile{toc}{\contentsline {paragraph}{Objekte schieben, ziehen od. anheben}{6}\protected@file@percent }
\@writefile{toc}{\contentsline {subsection}{Geschicklichkeit}{6}\protected@file@percent }
\@writefile{toc}{\contentsline {subsubsection}{Geschicklichkeitswürfe}{6}\protected@file@percent }
\@writefile{toc}{\contentsline {paragraph}{Akrobatik}{6}\protected@file@percent }
\@writefile{toc}{\contentsline {paragraph}{Fingerfertigkeit}{6}\protected@file@percent }
\pgfsyspdfmark {pgfid33}{3552215}{2273397}
\pgfsyspdfmark {pgfid35}{3552215}{51340433}
\pgfsyspdfmark {pgfid36}{20129219}{51340433}
\pgfsyspdfmark {pgfid37}{36706222}{51340433}
\@writefile{toc}{\contentsline {paragraph}{Heimlichkeit}{7}\protected@file@percent }
\@writefile{toc}{\contentsline {paragraph}{Andere Ges.-Würfe}{7}\protected@file@percent }
\@writefile{toc}{\contentsline {subsection}{Konstitution}{7}\protected@file@percent }
\@writefile{toc}{\contentsline {subsubsection}{Konstitutionswürfe}{7}\protected@file@percent }
\@writefile{toc}{\contentsline {subsection}{Intelligenz}{7}\protected@file@percent }
\@writefile{toc}{\contentsline {subsubsection}{Intelligenzwürfe}{7}\protected@file@percent }
\@writefile{toc}{\contentsline {paragraph}{Arkane Kunde}{7}\protected@file@percent }
\@writefile{toc}{\contentsline {paragraph}{Geschichte}{7}\protected@file@percent }
\@writefile{toc}{\contentsline {paragraph}{Nachforschungen}{7}\protected@file@percent }
\@writefile{toc}{\contentsline {paragraph}{Naturkunde}{7}\protected@file@percent }
\@writefile{toc}{\contentsline {paragraph}{Religion}{7}\protected@file@percent }
\@writefile{toc}{\contentsline {paragraph}{Andere Int.-Würfe}{7}\protected@file@percent }
\@writefile{toc}{\contentsline {subsection}{Weisheit}{7}\protected@file@percent }
\@writefile{toc}{\contentsline {subsubsection}{Weisheitswürfe}{7}\protected@file@percent }
\@writefile{toc}{\contentsline {paragraph}{Mit Tieren umgehen}{7}\protected@file@percent }
\@writefile{toc}{\contentsline {paragraph}{Motiv erkennen}{7}\protected@file@percent }
\@writefile{toc}{\contentsline {paragraph}{Heilkunde}{7}\protected@file@percent }
\@writefile{toc}{\contentsline {paragraph}{Wahrnehmung}{7}\protected@file@percent }
\pgfsyspdfmark {pgfid38}{36706222}{2273397}
\pgfsyspdfmark {pgfid39}{3552215}{51340433}
\pgfsyspdfmark {pgfid40}{20129219}{51340433}
\pgfsyspdfmark {pgfid41}{36706222}{51340433}
\@writefile{toc}{\contentsline {paragraph}{Überlebenskunst}{8}\protected@file@percent }
\@writefile{toc}{\contentsline {paragraph}{Andere Weisheitswürfe}{8}\protected@file@percent }
\@writefile{toc}{\contentsline {subsection}{Charisma}{8}\protected@file@percent }
\@writefile{toc}{\contentsline {subsubsection}{Charismawürfe}{8}\protected@file@percent }
\@writefile{toc}{\contentsline {paragraph}{Täuschen}{8}\protected@file@percent }
\@writefile{toc}{\contentsline {paragraph}{Einschüchtern}{8}\protected@file@percent }
\@writefile{toc}{\contentsline {paragraph}{Auftreten}{8}\protected@file@percent }
\@writefile{toc}{\contentsline {paragraph}{Überzeugen}{8}\protected@file@percent }
\@writefile{toc}{\contentsline {paragraph}{Andere Charismawürfe}{8}\protected@file@percent }
\pgfsyspdfmark {pgfid42}{3552215}{2273397}
\pgfsyspdfmark {pgfid43}{3552215}{51340433}
\pgfsyspdfmark {pgfid44}{20129219}{51340433}
\pgfsyspdfmark {pgfid45}{36706222}{51340433}
\@writefile{toc}{\contentsline {part}{\numberline {3}Übersicht über Zauber und Ausrüstung}{9}\protected@file@percent }
\pgfsyspdfmark {pgfid46}{36706222}{2273397}
\pgfsyspdfmark {pgfid47}{3552215}{51340433}
\pgfsyspdfmark {pgfid48}{20129219}{51340433}
\pgfsyspdfmark {pgfid49}{36706222}{51340433}
\@writefile{toc}{\contentsline {chapter}{\numberline {3}Abenteuerausrüstung}{10}\protected@file@percent }
\@writefile{lof}{\addvspace {10\p@ }}
\@writefile{lot}{\addvspace {10\p@ }}
\pgfsyspdfmark {pgfid50}{12516146}{2273397}
\pgfsyspdfmark {pgfid51}{3552215}{51340433}
\pgfsyspdfmark {pgfid52}{20129219}{51340433}
\pgfsyspdfmark {pgfid53}{36706222}{51340433}
\@writefile{toc}{\contentsline {chapter}{\numberline {4}Baleor (Titus)}{11}\protected@file@percent }
\@writefile{lof}{\addvspace {10\p@ }}
\@writefile{lot}{\addvspace {10\p@ }}
\@writefile{toc}{\contentsline {section}{Zauber}{11}\protected@file@percent }
\@writefile{toc}{\contentsline {subsection}{Zaubertricks}{11}\protected@file@percent }
\@writefile{toc}{\contentsline {subsubsection}{Licht}{11}\protected@file@percent }
\@writefile{toc}{\contentsline {subsubsection}{Magierhand}{11}\protected@file@percent }
\@writefile{toc}{\contentsline {subsubsection}{Kältestrahl}{11}\protected@file@percent }
\@writefile{toc}{\contentsline {subsection}{Zaubersprüche}{11}\protected@file@percent }
\@writefile{toc}{\contentsline {subsubsection}{Brennende Hände}{11}\protected@file@percent }
\@writefile{toc}{\contentsline {subsubsection}{Federfall}{11}\protected@file@percent }
\@writefile{toc}{\contentsline {subsubsection}{Magierrüstung}{11}\protected@file@percent }
\pgfsyspdfmark {pgfid54}{36706222}{2273397}
\pgfsyspdfmark {pgfid55}{3552215}{51340433}
\pgfsyspdfmark {pgfid56}{20129219}{51340433}
\pgfsyspdfmark {pgfid57}{36706222}{51340433}
\@writefile{toc}{\contentsline {subsubsection}{Magisches Geschoss}{12}\protected@file@percent }
\@writefile{toc}{\contentsline {subsubsection}{Schlaf}{12}\protected@file@percent }
\@writefile{toc}{\contentsline {subsubsection}{Person Bezaubern}{12}\protected@file@percent }
\pgfsyspdfmark {pgfid58}{10011382}{2273397}
\pgfsyspdfmark {pgfid59}{3552215}{51340433}
\pgfsyspdfmark {pgfid60}{20129219}{51340433}
\pgfsyspdfmark {pgfid61}{36706222}{51340433}
\@writefile{toc}{\contentsline {chapter}{\numberline {5}Lureene (Maria)}{13}\protected@file@percent }
\@writefile{lof}{\addvspace {10\p@ }}
\@writefile{lot}{\addvspace {10\p@ }}
\@writefile{toc}{\contentsline {section}{Zauber}{13}\protected@file@percent }
\@writefile{toc}{\contentsline {subsection}{Zaubertricks}{13}\protected@file@percent }
\@writefile{toc}{\contentsline {subsubsection}{Heilige Flamme}{13}\protected@file@percent }
\@writefile{toc}{\contentsline {subsubsection}{Verschonung der Toten}{13}\protected@file@percent }
\@writefile{toc}{\contentsline {subsubsection}{Thaumarturgie}{13}\protected@file@percent }
\@writefile{toc}{\contentsline {subsection}{Zaubersprüche}{13}\protected@file@percent }
\@writefile{toc}{\contentsline {subsubsection}{Heiligtum}{13}\protected@file@percent }
\@writefile{toc}{\contentsline {subsubsection}{Lenkendes Geschoss}{13}\protected@file@percent }
\@writefile{toc}{\contentsline {subsubsection}{Segnen}{13}\protected@file@percent }
\pgfsyspdfmark {pgfid62}{36706222}{2273397}
\ttl@finishall
\pgfsyspdfmark {pgfid63}{3552215}{51340433}
\pgfsyspdfmark {pgfid64}{20129219}{51340433}
\pgfsyspdfmark {pgfid65}{36706222}{51340433}
\@writefile{toc}{\contentsline {subsubsection}{Wunden Heilen}{14}\protected@file@percent }
\pgfsyspdfmark {pgfid66}{10497652}{2273397}
